tests/data_buff/sim/xsim.log
#-----------------------------------------------------------
# xsim v2024.2 (64-bit)
# SW Build 5239630 on Fri Nov 08 22:35:27 MST 2024
# IP Build 5239520 on Sun Nov 10 16:12:51 MST 2024
# SharedData Build 5239561 on Fri Nov 08 14:39:27 MST 2024
# Start of session at: Fri Jun  5 15:19:03 2026
# Process ID         : 4132
# Current directory  : C:/Users/JS Lab/Documents/gordo/RedPitaya/CtrlSysV3/tests/data_buff/sim
# Command line       : xsim.exe -source {xsim.dir/sim/xsim_script.tcl}
# Log file           : C:/Users/JS Lab/Documents/gordo/RedPitaya/CtrlSysV3/tests/data_buff/sim/xsim.log
# Journal file       : C:/Users/JS Lab/Documents/gordo/RedPitaya/CtrlSysV3/tests/data_buff/sim\xsim.jou
# Running On         : DESKTOP-SH3N8PC
# Platform           : Windows Server 2016 or Windows 10
# Operating System   : 19045
# Processor Detail   : Intel(R) Core(TM) i7-7800X CPU @ 3.50GHz
# CPU Frequency      : 3504 MHz
# CPU Physical cores : 6
# CPU Logical cores  : 12
# Host memory        : 34047 MB
# Swap memory        : 5100 MB
# Total Virtual      : 39147 MB
# Available Virtual  : 25915 MB
#-----------------------------------------------------------
start_gui
source xsim.dir/sim/xsim_script.tcl
# set_param project.enableReportConfiguration 0
# load_feature core
# current_fileset
INFO: [IP_Flow 19-234] Refreshing IP repositories
INFO: [IP_Flow 19-1704] No user IP repositories specified
INFO: [IP_Flow 19-2313] Loaded Vivado IP repository 'C:/Xilinx/Vivado/2024.2/data/ip'.
# xsim {sim} -autoloadwcfg
Time resolution is 1 ps
add_wave {{/tb/clk}} {{/tb/in_frame}} {{/tb/out_frame}} {{/tb/rdata}} {{/tb/empty}} {{/tb/rd_en}} {{/tb/wr_en}} {{/tb/full}} {{/tb/rst}} {{/tb/stop}} 
run all
[20000] clk i=0 wr_en=0 in_frame=0xxxxxxxxxxxxxxxxxxxxxxxxxxxxxxxxxxxxxxxxx0000xxxxxxxxxxxxxxxxxxxxxxxxxxxxxxxxxxxxxxxxxxxxxxxxxxxxxxxxxxxxxxxxxxxxxxxxxxxx0000xxxxxxxxxxxxxxxxxxxxxxxxxxxxxxxxxxxx 
[60000] clk i=1 wr_en=0 in_frame=0x76d457ed1e8dcd3d7cfde9f9462df78cxxxxxxxX0000d612bbd2727772aff7e5d513d2aae2f784c58484d609c0895e8106b97b0db1f05663xxxxxxxX0000f17606d7cd0d00f3e30189375212b2c28465 
[60000] clk rd_en=1 rdata=0xxxxxxxxxxxxxxxxxxxxxxxxxxxxxxxxxxxxxxxxx0000xxxxxxxxxxxxxxxxxxxxxxxxxxxxxxxxxxxxxxxxxxxxxxxxxxxxxxxxxxxxxxxxxxxxxxxxxxxx0000xxxxxxxxxxxxxxxxxxxxxxxxxxxxxxxxxxxx 
[60000] FIFO is empty, wait for writes to happen
[100000] clk i=2 wr_en=0 in_frame=0x557845aa10642120cb203e96cecccc9dxxxxxxxX00004a02eaa62ad5359fdd6ba9a7d65386bc380df4007ae8e77696ce2e58495ce2ca4ec5xxxxxxxX000022800573870ab1ef6263b2a7266596ab582d 
[100000] FIFO is empty, wait for writes to happen
[140000] clk i=3 wr_en=0 in_frame=0xc48a12893c20f3785b0265b675c50debxxxxxxxX0000be7185d79a0b150fdd2ade7502bc571513aee7c572cf0effe91d0509650a11844923xxxxxxxX000034d820c4b341452e618a7968bdf29e314c3c 
[140000] FIFO is empty, wait for writes to happen
[180000] clk i=4 wr_en=1 in_frame=0x7c6da9f847b9a18fcfc4569fdbcd60b7xxxxxxxX0000c0d7e8233ed0a4ae324944de3789adcbc05b9dcc603b27f2554fbf23327e1d06333axxxxxxxX0000559f2635fb4c312307626c9c4bd978d99bf1 
[180000] FIFO is empty, wait for writes to happen
[220000] clk i=5 wr_en=1 in_frame=0xe9ebf6d30fd28f1fbc14887842d92f85xxxxxxxX000038862c156358150caf2a9ff2ae3f248b4b49061d7f0c4b212f966457edc8e12ccec2xxxxxxxX0000e73936e5816dbf05007e090cdb121ef2ed3d 
[260000] clk i=6 wr_en=0 in_frame=0xf3091ae6e59b36cb14cfc1292d28db5axxxxxxxX00001979efbe94dfda8ae2b5b29fb665ed536cda7d3599face2ff29c39961773937dbc26xxxxxxxX0000fdf722290d44afd8565fd9d292b39799a82f 
[260000] clk rd_en=0 rdata=0xxxxxxxxxxxxxxxxxxxxxxxxxxxxxxxxxxxxxxxxx0000xxxxxxxxxxxxxxxxxxxxxxxxxxxxxxxxxxxxxxxxxxxxxxxxxxxxxxxxxxxxxxxxxxxxxxxxxxxx0000xxxxxxxxxxxxxxxxxxxxxxxxxxxxxxxxxxxx 
[300000] clk i=7 wr_en=0 in_frame=0x5b6fb9b68531340a3cd187799c0e8a38xxxxxxxX000069dbacb7ca59823f2c0449c65d934a74bf9455f6adab15090b2a6e5daddc076fcf0exxxxxxxX000076672779e94e2b0eed56e1f102c3fedf72fd 
[300000] clk rd_en=1 rdata=0xxxxxxxxxxxxxxxxxxxxxxxxxxxxxxxxxxxxxxxxx0000xxxxxxxxxxxxxxxxxxxxxxxxxxxxxxxxxxxxxxxxxxxxxxxxxxxxxxxxxxxxxxxxxxxxxxxxxxxx0000xxxxxxxxxxxxxxxxxxxxxxxxxxxxxxxxxxxx 
[340000] clk i=8 wr_en=1 in_frame=0x147cd92844018d88e3c530c79690042dxxxxxxxX0000901c149e0729fea7a6fd0e41451c8477e408bb45e276b6a4266d5b172db6653b49caxxxxxxxX0000bab4349807697bd261f702749b04a3071a46 
[340000] clk rd_en=0 rdata=0xxxxxxxxxxxxxxxxxxxxxxxxxxxxxxxxxxxxxxxxx0000xxxxxxxxxxxxxxxxxxxxxxxxxxxxxxxxxxxxxxxxxxxxxxxxxxxxxxxxxxxxxxxxxxxxxxxxxxxx0000xxxxxxxxxxxxxxxxxxxxxxxxxxxxxxxxxxxx 
[380000] clk i=9 wr_en=0 in_frame=0x4b2737961b87613713259f26603921c0xxxxxxxX00009b7e3c03ff78436157866e5f0fdc3e99837d334ea7669eb7c63db9f50473b855c470xxxxxxxX000000b98d24f61a6a8e05d57d4779fa2f3ab35e 
[380000] clk rd_en=1 rdata=0x7c6da9f847b9a18fcfc4569fdbcd60b7xxxxxxxX0000c0d7e8233ed0a4ae324944de3789adcbc05b9dcc603b27f2554fbf23327e1d06333axxxxxxxX0000559f2635fb4c312307626c9c4bd978d99bf1 
[420000] clk i=10 wr_en=1 in_frame=0xe2e574c560b175c125b27b4bcc01b498xxxxxxxX0000fda9d44b80a82758d14ec550168af622e6ecfd28e4fa3ced2b790b940917b0bcee61xxxxxxxX00008a299ab488357a8c59f5a863965043779186 
[420000] clk rd_en=1 rdata=0x7c6da9f847b9a18fcfc4569fdbcd60b7xxxxxxxX0000c0d7e8233ed0a4ae324944de3789adcbc05b9dcc603b27f2554fbf23327e1d06333axxxxxxxX0000559f2635fb4c312307626c9c4bd978d99bf1 
[460000] clk i=11 wr_en=0 in_frame=0x35a0c96b09ff41135b0bddb6e3b7aec7xxxxxxxX00003b7fda269ab4492fd3925c8295b96216abc4cfd6c09ff33466e6155a1d2a152fb52axxxxxxxX000045ca6464e3c8bccfa8799c6de6384f75ff9e 
[460000] clk rd_en=0 rdata=0xe9ebf6d30fd28f1fbc14887842d92f85xxxxxxxX000038862c156358150caf2a9ff2ae3f248b4b49061d7f0c4b212f966457edc8e12ccec2xxxxxxxX0000e73936e5816dbf05007e090cdb121ef2ed3d 
[500000] clk i=12 wr_en=0 in_frame=0xf78290ef85e51e0b1b60e53664c83dc9xxxxxxxX0000819bd73fb4ae4465e78835cdbf6bc7e8568f19452132f92794f2424fcd84dece5ebdxxxxxxxX00006afb4765a98ed095a8a154a879a96543cfca 
[500000] clk rd_en=0 rdata=0x147cd92844018d88e3c530c79690042dxxxxxxxX0000901c149e0729fea7a6fd0e41451c8477e408bb45e276b6a4266d5b172db6653b49caxxxxxxxX0000bab4349807697bd261f702749b04a3071a46 
[540000] clk i=13 wr_en=0 in_frame=0x6c44f9d89dbf643bab19625629efe953xxxxxxxX00004d12ec50b4d839ac03738273e204f166fae225b75f4b9684e02d8f1cf61ee169b0c2xxxxxxxX00002441c3761c8668ae1bd10c039d187679fdec 
[540000] clk rd_en=0 rdata=0x147cd92844018d88e3c530c79690042dxxxxxxxX0000901c149e0729fea7a6fd0e41451c8477e408bb45e276b6a4266d5b172db6653b49caxxxxxxxX0000bab4349807697bd261f702749b04a3071a46 
[580000] clk i=14 wr_en=1 in_frame=0xa6e9314cb5c8096cb2270968919b412xxxxxxxX000003ad7ab11bf5158b2b2bf6c38eed2ac2d555d0c5dca1f287b6e540905d8115890f2bxxxxxxxX0000235882223a048f8c6e1f50d5f9a113b55527 
[580000] clk rd_en=1 rdata=0x147cd92844018d88e3c530c79690042dxxxxxxxX0000901c149e0729fea7a6fd0e41451c8477e408bb45e276b6a4266d5b172db6653b49caxxxxxxxX0000bab4349807697bd261f702749b04a3071a46 
[620000] clk i=15 wr_en=0 in_frame=0x41a10583a2e62045b9461472be75427cxxxxxxxX00009738782321f043460d86b7dfaa6fb455f268f3d7a6e7d3a8e4a7a4da5649dcef90b9xxxxxxxX000045fa1546dd2ad0bc5ea12883b15164ba0fc9 
[620000] clk rd_en=0 rdata=0x147cd92844018d88e3c530c79690042dxxxxxxxX0000901c149e0729fea7a6fd0e41451c8477e408bb45e276b6a4266d5b172db6653b49caxxxxxxxX0000bab4349807697bd261f702749b04a3071a46 
[660000] clk i=16 wr_en=0 in_frame=0xbe29d17f0b14ee164b5e3c9a18bee43xxxxxxxX00002707ad67e25ac69da28d60f69dc11297cb25e2bf1ac57b0da9f63a625f74602831c0xxxxxxxX000035153124d3621521932a1e1c873cd86a6ab0 
[660000] clk rd_en=0 rdata=0xe2e574c560b175c125b27b4bcc01b498xxxxxxxX0000fda9d44b80a82758d14ec550168af622e6ecfd28e4fa3ced2b790b940917b0bcee61xxxxxxxX00008a299ab488357a8c59f5a863965043779186 
[700000] clk i=17 wr_en=0 in_frame=0x6e8af5ddda3d8cb425b0994b86dcf00dxxxxxxxX00009a0347e2738fbde0d27bfef064fdcf63da9e9de17c3bb8ade671fbdfc2f75b60e5b6xxxxxxxX00000972d00b12a0902a3a202ab8f755ae78585c 
[700000] clk rd_en=1 rdata=0xe2e574c560b175c125b27b4bcc01b498xxxxxxxX0000fda9d44b80a82758d14ec550168af622e6ecfd28e4fa3ced2b790b940917b0bcee61xxxxxxxX00008a299ab488357a8c59f5a863965043779186 
[740000] clk i=18 wr_en=1 in_frame=0xc63a928c236afd460beac11748487d90xxxxxxxX00004dbab05202603e6f0f7cd55bbcaa427b578422119f4458f93db1f01d34e0ca9cbc95xxxxxxxX0000e784a95fc45246dcb78d7c1e5bf8297a1552 
[740000] clk rd_en=1 rdata=0xe2e574c560b175c125b27b4bcc01b498xxxxxxxX0000fda9d44b80a82758d14ec550168af622e6ecfd28e4fa3ced2b790b940917b0bcee61xxxxxxxX00008a299ab488357a8c59f5a863965043779186 
[740000] FIFO is empty, wait for writes to happen
[780000] clk i=19 wr_en=0 in_frame=0xda058ab49caf7a399622502c6851e5d0xxxxxxxX00009e4b746affe80895f911b522406a03e9b7071905833292831e25a48f7c49d10504a2xxxxxxxX0000978623907547ae68305c25f2034b9ec9c03d 
[820000] clk rd_en=0 rdata=0xa6e9314cb5c8096cb2270968919b412xxxxxxxX000003ad7ab11bf5158b2b2bf6c38eed2ac2d555d0c5dca1f287b6e540905d8115890f2bxxxxxxxX0000235882223a048f8c6e1f50d5f9a113b55527 
$finish called at time : 1820 ns : File "C:/Users/JS Lab/Documents/gordo/RedPitaya/CtrlSysV3/tests/data_buff/data_buff_tb.sv" Line 84
close_sim
INFO: [Simtcl 6-16] Simulation closed
exit
INFO: [Common 17-206] Exiting xsim at Fri Jun  5 16:34:14 2026...
